<?xml version="1.0" encoding="UTF-8"?>
<kml xmlns="http://www.opengis.net/kml/2.2">
	<Document>
		<!-- Icons -->
		<Style id="point-default"><IconStyle>
			<Icon><href>https://www.gstatic.com/mapspro/images/stock/503-wht-blank_maps.png</href></Icon>
			<hotSpot x="32" xunits="pixels" y="64" yunits="insetPixels"/>
			<color>ff000000</color>
		</IconStyle></Style>
		
		<Style id="point-gym"><IconStyle>
			<Icon><href>https://raw.githubusercontent.com/cecpk/RocketMAD/master/static/images/gym/Uncontested.png</href></Icon>
			<hotSpot x="14" xunits="pixels" y="18" yunits="pixels"/>
		</IconStyle></Style>
		<Style id="point-gym-blue-1"><IconStyle>
			<Icon><href>https://raw.githubusercontent.com/cecpk/RocketMAD/master/static/images/gym/Mystic_1.png</href></Icon>
			<hotSpot x="14" xunits="pixels" y="18" yunits="pixels"/>
		</IconStyle></Style>
		<Style id="point-gym-blue-2"><IconStyle>
			<Icon><href>https://raw.githubusercontent.com/cecpk/RocketMAD/master/static/images/gym/Mystic_2.png</href></Icon>
			<hotSpot x="14" xunits="pixels" y="18" yunits="pixels"/>
		</IconStyle></Style>
		<Style id="point-gym-blue-3"><IconStyle>
			<Icon><href>https://raw.githubusercontent.com/cecpk/RocketMAD/master/static/images/gym/Mystic_3.png</href></Icon>
			<hotSpot x="14" xunits="pixels" y="18" yunits="pixels"/>
		</IconStyle></Style>
		<Style id="point-gym-yellow-1"><IconStyle>
			<Icon><href>https://raw.githubusercontent.com/cecpk/RocketMAD/master/static/images/gym/Instinct_1.png</href></Icon>
			<hotSpot x="14" xunits="pixels" y="18" yunits="pixels"/>
		</IconStyle></Style>
		<Style id="point-gym-yellow-2"><IconStyle>
			<Icon><href>https://raw.githubusercontent.com/cecpk/RocketMAD/master/static/images/gym/Instinct_2.png</href></Icon>
			<hotSpot x="14" xunits="pixels" y="18" yunits="pixels"/>
		</IconStyle></Style>
		<Style id="point-gym-yellow-3"><IconStyle>
			<Icon><href>https://raw.githubusercontent.com/cecpk/RocketMAD/master/static/images/gym/Instinct_3.png</href></Icon>
			<hotSpot x="14" xunits="pixels" y="18" yunits="pixels"/>
		</IconStyle></Style>
		<Style id="point-gym-red-1"><IconStyle>
			<Icon><href>https://raw.githubusercontent.com/cecpk/RocketMAD/master/static/images/gym/Valor_1.png</href></Icon>
			<hotSpot x="14" xunits="pixels" y="18" yunits="pixels"/>
		</IconStyle></Style>
		<Style id="point-gym-red-2"><IconStyle>
			<Icon><href>https://raw.githubusercontent.com/cecpk/RocketMAD/master/static/images/gym/Valor_2.png</href></Icon>
			<hotSpot x="14" xunits="pixels" y="18" yunits="pixels"/>
		</IconStyle></Style>
		<Style id="point-gym-red-3"><IconStyle>
			<Icon><href>https://raw.githubusercontent.com/cecpk/RocketMAD/master/static/images/gym/Valor_3.png</href></Icon>
			<hotSpot x="14" xunits="pixels" y="18" yunits="pixels"/>
		</IconStyle></Style>
		<Style id="point-gym-purple-+"><IconStyle>
			<Icon><href>https://drive.google.com/uc?id=1uVEahMGWoM-ZwtLdpKy2-jxCAJJ8_pEX</href></Icon>
			<hotSpot x="14" xunits="pixels" y="18" yunits="pixels"/>
		</IconStyle></Style>
		
		<Style id="point-pokestop"><IconStyle>
			<Icon><href>https://github.com/cecpk/RocketMAD/raw/master/static/images/pokestop/stop.png</href></Icon>
			<hotSpot x="16" xunits="pixels" y="0" yunits="pixels"/>
		</IconStyle></Style>
		<Style id="point-pokestop-orange"><IconStyle>
			<Icon><href>https://github.com/cecpk/RocketMAD/raw/master/static/images/pokestop/stop_q.png</href></Icon>
			<hotSpot x="16" xunits="pixels" y="0" yunits="pixels"/>
		</IconStyle></Style>
		<Style id="point-pokestop-black"><IconStyle>
			<Icon><href>https://github.com/cecpk/RocketMAD/raw/master/static/images/pokestop/stop_i.png</href></Icon>
			<hotSpot x="16" xunits="pixels" y="0" yunits="pixels"/>
		</IconStyle></Style>
		<Style id="point-pokestop-black-orange"><IconStyle>
			<Icon><href>https://github.com/cecpk/RocketMAD/raw/master/static/images/pokestop/stop_q_i_45.png</href></Icon>
			<hotSpot x="16" xunits="pixels" y="0" yunits="pixels"/>
		</IconStyle></Style>
		
		<Style id="point-nomination"><IconStyle>
			<Icon><href>https://github.com/cecpk/RocketMAD/raw/master/static/images/markers/pokesition.png</href></Icon>
			<hotSpot x="16" xunits="pixels" y="3" yunits="pixels"/>
		</IconStyle></Style>
		<Style id="point-candidate"><IconStyle>
			<Icon><href>https://github.com/cecpk/RocketMAD/raw/master/static/images/markers/compass.png</href></Icon>
			<hotSpot x="15" xunits="pixels" y="16" yunits="pixels"/>
		</IconStyle></Style>
		
		
		<!-- S2 Cells -->
		<Style id="s2cell_default">				<LineStyle><color>ff000000</color><width>1</width></LineStyle><PolyStyle><fill>0</fill><color>80000000</color></PolyStyle></Style>
		<Style id="s2cell_gym_default">				<LineStyle><color>ff000000</color><width>3</width></LineStyle><PolyStyle><fill>0</fill><color>80000000</color></PolyStyle></Style>
		<Style id="s2cell_gym_0-gyms">				<LineStyle><color>ff999999</color><width>3</width></LineStyle><PolyStyle><fill>0</fill><color>80999999</color></PolyStyle></Style>
		<Style id="s2cell_gym_1-gyms">				<LineStyle><color>ffff8600</color><width>3</width></LineStyle><PolyStyle><fill>0</fill><color>80ff8600</color></PolyStyle></Style>
		<Style id="s2cell_gym_2-gyms">				<LineStyle><color>ff0b96ff</color><width>3</width></LineStyle><PolyStyle><fill>0</fill><color>800b96ff</color></PolyStyle></Style>
		<Style id="s2cell_gym_3-gyms">				<LineStyle><color>ff1a1aff</color><width>3</width></LineStyle><PolyStyle><fill>0</fill><color>801a1aff</color></PolyStyle></Style>
		<Style id="s2cell_gym_*-gyms">				<LineStyle><color>ffff00c3</color><width>3</width></LineStyle><PolyStyle><fill>0</fill><color>80ff00c3</color></PolyStyle></Style>
		<Style id="s2cell_pokestop_default">			<LineStyle><color>ff008000</color><width>1</width></LineStyle><PolyStyle><fill>0</fill><color>80008000</color></PolyStyle></Style>
		<Style id="s2cell_pokestop_occupiedWithGym">		<LineStyle><color>ff0066ff</color><width>1</width></LineStyle><PolyStyle><fill>1</fill><color>800066ff</color></PolyStyle></Style>
		<Style id="s2cell_pokestop_occupiedWithPokestop">	<LineStyle><color>ff2a2aff</color><width>1</width></LineStyle><PolyStyle><fill>1</fill><color>802a2aff</color></PolyStyle></Style>
		<Style id="s2cell_pokestop_containsNomination">		<LineStyle><color>ff00d455</color><width>1</width></LineStyle><PolyStyle><fill>1</fill><color>8000d455</color></PolyStyle></Style>
		<Style id="s2cell_pokestop_containsCandidate">		<LineStyle><color>ffffcc00</color><width>1</width></LineStyle><PolyStyle><fill>1</fill><color>80ffcc00</color></PolyStyle></Style>
		
		
		
		
		<!-- Records -->
		<Placemark><name>Antimony</name><styleUrl>#point-gym-purple-+</styleUrl><Point><coordinates>11.570966,48.136613,0</coordinates></Point></Placemark>
		<Placemark><name>Beryllium</name><styleUrl>#point-gym-red-3</styleUrl><Point><coordinates>11.576848,48.136013,0</coordinates></Point></Placemark>
		<Placemark><name>Boron</name><styleUrl>#point-gym-yellow-2</styleUrl><Point><coordinates>11.588092,48.137558,0</coordinates></Point></Placemark>
		<Placemark><name>Bromine</name><styleUrl>#point-gym-red-3</styleUrl><Point><coordinates>11.572937,48.143249,0</coordinates></Point></Placemark>
		<Placemark><name>Chlorine</name><styleUrl>#point-gym-red-3</styleUrl><Point><coordinates>11.566778,48.138914,0</coordinates></Point></Placemark>
		<Placemark><name>Chromium</name><styleUrl>#point-gym-purple-+</styleUrl><Point><coordinates>11.570281,48.138479,0</coordinates></Point></Placemark>
		<Placemark><name>Copper</name><styleUrl>#point-gym-yellow-2</styleUrl><Point><coordinates>11.577919,48.133503,0</coordinates></Point></Placemark>
		<Placemark><name>Fluorine</name><styleUrl>#point-gym-yellow-2</styleUrl><Point><coordinates>11.576228,48.13181,0</coordinates></Point></Placemark>
		<Placemark><name>Hydrogen</name><styleUrl>#point-gym-blue-1</styleUrl><Point><coordinates>11.56757,48.140693,0</coordinates></Point></Placemark>
		<Placemark><name>Lithium</name><styleUrl>#point-gym-blue-1</styleUrl><Point><coordinates>11.578224,48.149363,0</coordinates></Point></Placemark>
		<Placemark><name>Magnesium</name><styleUrl>#point-gym-purple-+</styleUrl><Point><coordinates>11.573369,48.137513,0</coordinates></Point></Placemark>
		<Placemark><name>Molybdenum</name><styleUrl>#point-gym-red-3</styleUrl><Point><coordinates>11.568108,48.138569,0</coordinates></Point></Placemark>
		<Placemark><name>Nickel</name><styleUrl>#point-gym-blue-1</styleUrl><Point><coordinates>11.586528,48.14223,0</coordinates></Point></Placemark>
		<Placemark><name>Niobium</name><styleUrl>#point-gym-red-3</styleUrl><Point><coordinates>11.567267,48.132393,0</coordinates></Point></Placemark>
		<Placemark><name>Palladium</name><styleUrl>#point-gym-yellow-2</styleUrl><Point><coordinates>11.581929,48.134991,0</coordinates></Point></Placemark>
		<Placemark><name>Phosphorus</name><styleUrl>#point-gym-red-3</styleUrl><Point><coordinates>11.573521,48.144876,0</coordinates></Point></Placemark>
		<Placemark><name>Potassium</name><styleUrl>#point-gym-red-3</styleUrl><Point><coordinates>11.575546,48.137437,0</coordinates></Point></Placemark>
		<Placemark><name>Rhodium</name><styleUrl>#point-gym-purple-+</styleUrl><Point><coordinates>11.569579,48.138661,0</coordinates></Point></Placemark>
		<Placemark><name>Rubidium</name><styleUrl>#point-gym-red-3</styleUrl><Point><coordinates>11.576076,48.135108,0</coordinates></Point></Placemark>
		<Placemark><name>Ruthenium</name><styleUrl>#point-gym-red-3</styleUrl><Point><coordinates>11.567604,48.134108,0</coordinates></Point></Placemark>
		<Placemark><name>Selenium</name><styleUrl>#point-gym-yellow-2</styleUrl><Point><coordinates>11.577105,48.141708,0</coordinates></Point></Placemark>
		<Placemark><name>Tin</name><styleUrl>#point-gym-red-3</styleUrl><Point><coordinates>11.565815,48.139141,0</coordinates></Point></Placemark>
		<Placemark><name>Vanadium</name><styleUrl>#point-gym-yellow-2</styleUrl><Point><coordinates>11.580019,48.142981,0</coordinates></Point></Placemark>
		<Placemark><name>Zinc</name><styleUrl>#point-gym-red-3</styleUrl><Point><coordinates>11.567855,48.133866,0</coordinates></Point></Placemark>
		<Placemark><name>Zirconium</name><styleUrl>#point-gym-red-3</styleUrl><Point><coordinates>11.573927,48.143113,0</coordinates></Point></Placemark>
	</Document>
</kml>
