<?xml version="1.0" encoding="UTF-8"?>
<kml xmlns="http://www.opengis.net/kml/2.2">
	<Document>
		<!-- Icons -->
		<Style id="point-default"><IconStyle>
			<Icon><href>https://www.gstatic.com/mapspro/images/stock/503-wht-blank_maps.png</href></Icon>
			<hotSpot x="32" xunits="pixels" y="64" yunits="insetPixels"/>
			<color>ff000000</color>
		</IconStyle></Style>
		
		<Style id="point-gym"><IconStyle>
			<Icon><href>https://raw.githubusercontent.com/cecpk/RocketMAD/master/static/images/gym/Uncontested.png</href></Icon>
			<hotSpot x="14" xunits="pixels" y="18" yunits="pixels"/>
		</IconStyle></Style>
		<Style id="point-gym-blue-1"><IconStyle>
			<Icon><href>https://raw.githubusercontent.com/cecpk/RocketMAD/master/static/images/gym/Mystic_1.png</href></Icon>
			<hotSpot x="14" xunits="pixels" y="18" yunits="pixels"/>
		</IconStyle></Style>
		<Style id="point-gym-blue-2"><IconStyle>
			<Icon><href>https://raw.githubusercontent.com/cecpk/RocketMAD/master/static/images/gym/Mystic_2.png</href></Icon>
			<hotSpot x="14" xunits="pixels" y="18" yunits="pixels"/>
		</IconStyle></Style>
		<Style id="point-gym-blue-3"><IconStyle>
			<Icon><href>https://raw.githubusercontent.com/cecpk/RocketMAD/master/static/images/gym/Mystic_3.png</href></Icon>
			<hotSpot x="14" xunits="pixels" y="18" yunits="pixels"/>
		</IconStyle></Style>
		<Style id="point-gym-yellow-1"><IconStyle>
			<Icon><href>https://raw.githubusercontent.com/cecpk/RocketMAD/master/static/images/gym/Instinct_1.png</href></Icon>
			<hotSpot x="14" xunits="pixels" y="18" yunits="pixels"/>
		</IconStyle></Style>
		<Style id="point-gym-yellow-2"><IconStyle>
			<Icon><href>https://raw.githubusercontent.com/cecpk/RocketMAD/master/static/images/gym/Instinct_2.png</href></Icon>
			<hotSpot x="14" xunits="pixels" y="18" yunits="pixels"/>
		</IconStyle></Style>
		<Style id="point-gym-yellow-3"><IconStyle>
			<Icon><href>https://raw.githubusercontent.com/cecpk/RocketMAD/master/static/images/gym/Instinct_3.png</href></Icon>
			<hotSpot x="14" xunits="pixels" y="18" yunits="pixels"/>
		</IconStyle></Style>
		<Style id="point-gym-red-1"><IconStyle>
			<Icon><href>https://raw.githubusercontent.com/cecpk/RocketMAD/master/static/images/gym/Valor_1.png</href></Icon>
			<hotSpot x="14" xunits="pixels" y="18" yunits="pixels"/>
		</IconStyle></Style>
		<Style id="point-gym-red-2"><IconStyle>
			<Icon><href>https://raw.githubusercontent.com/cecpk/RocketMAD/master/static/images/gym/Valor_2.png</href></Icon>
			<hotSpot x="14" xunits="pixels" y="18" yunits="pixels"/>
		</IconStyle></Style>
		<Style id="point-gym-red-3"><IconStyle>
			<Icon><href>https://raw.githubusercontent.com/cecpk/RocketMAD/master/static/images/gym/Valor_3.png</href></Icon>
			<hotSpot x="14" xunits="pixels" y="18" yunits="pixels"/>
		</IconStyle></Style>
		<Style id="point-gym-purple-+"><IconStyle>
			<Icon><href>https://drive.google.com/uc?id=1uVEahMGWoM-ZwtLdpKy2-jxCAJJ8_pEX</href></Icon>
			<hotSpot x="14" xunits="pixels" y="18" yunits="pixels"/>
		</IconStyle></Style>
		
		<Style id="point-pokestop"><IconStyle>
			<Icon><href>https://github.com/cecpk/RocketMAD/raw/master/static/images/pokestop/stop.png</href></Icon>
			<hotSpot x="16" xunits="pixels" y="0" yunits="pixels"/>
		</IconStyle></Style>
		<Style id="point-pokestop-orange"><IconStyle>
			<Icon><href>https://github.com/cecpk/RocketMAD/raw/master/static/images/pokestop/stop_q.png</href></Icon>
			<hotSpot x="16" xunits="pixels" y="0" yunits="pixels"/>
		</IconStyle></Style>
		<Style id="point-pokestop-black"><IconStyle>
			<Icon><href>https://github.com/cecpk/RocketMAD/raw/master/static/images/pokestop/stop_i.png</href></Icon>
			<hotSpot x="16" xunits="pixels" y="0" yunits="pixels"/>
		</IconStyle></Style>
		<Style id="point-pokestop-black-orange"><IconStyle>
			<Icon><href>https://github.com/cecpk/RocketMAD/raw/master/static/images/pokestop/stop_q_i_45.png</href></Icon>
			<hotSpot x="16" xunits="pixels" y="0" yunits="pixels"/>
		</IconStyle></Style>
		
		<Style id="point-nomination"><IconStyle>
			<Icon><href>https://github.com/cecpk/RocketMAD/raw/master/static/images/markers/pokesition.png</href></Icon>
			<hotSpot x="16" xunits="pixels" y="3" yunits="pixels"/>
		</IconStyle></Style>
		<Style id="point-candidate"><IconStyle>
			<Icon><href>https://github.com/cecpk/RocketMAD/raw/master/static/images/markers/compass.png</href></Icon>
			<hotSpot x="15" xunits="pixels" y="16" yunits="pixels"/>
		</IconStyle></Style>
		
		
		<!-- S2 Cells -->
		<Style id="s2cell_default">				<LineStyle><color>ff000000</color><width>1</width></LineStyle><PolyStyle><fill>0</fill><color>80000000</color></PolyStyle></Style>
		<Style id="s2cell_gym_default">				<LineStyle><color>ff000000</color><width>3</width></LineStyle><PolyStyle><fill>0</fill><color>80000000</color></PolyStyle></Style>
		<Style id="s2cell_gym_0-gyms">				<LineStyle><color>ff999999</color><width>3</width></LineStyle><PolyStyle><fill>0</fill><color>80999999</color></PolyStyle></Style>
		<Style id="s2cell_gym_1-gyms">				<LineStyle><color>ffff8600</color><width>3</width></LineStyle><PolyStyle><fill>0</fill><color>80ff8600</color></PolyStyle></Style>
		<Style id="s2cell_gym_2-gyms">				<LineStyle><color>ff0b96ff</color><width>3</width></LineStyle><PolyStyle><fill>0</fill><color>800b96ff</color></PolyStyle></Style>
		<Style id="s2cell_gym_3-gyms">				<LineStyle><color>ff1a1aff</color><width>3</width></LineStyle><PolyStyle><fill>0</fill><color>801a1aff</color></PolyStyle></Style>
		<Style id="s2cell_gym_*-gyms">				<LineStyle><color>ffff00c3</color><width>3</width></LineStyle><PolyStyle><fill>0</fill><color>80ff00c3</color></PolyStyle></Style>
		<Style id="s2cell_pokestop_default">			<LineStyle><color>ff008000</color><width>1</width></LineStyle><PolyStyle><fill>0</fill><color>80008000</color></PolyStyle></Style>
		<Style id="s2cell_pokestop_occupiedWithGym">		<LineStyle><color>ff0066ff</color><width>1</width></LineStyle><PolyStyle><fill>1</fill><color>800066ff</color></PolyStyle></Style>
		<Style id="s2cell_pokestop_occupiedWithPokestop">	<LineStyle><color>ff2a2aff</color><width>1</width></LineStyle><PolyStyle><fill>1</fill><color>802a2aff</color></PolyStyle></Style>
		<Style id="s2cell_pokestop_containsNomination">		<LineStyle><color>ff00d455</color><width>1</width></LineStyle><PolyStyle><fill>1</fill><color>8000d455</color></PolyStyle></Style>
		<Style id="s2cell_pokestop_containsCandidate">		<LineStyle><color>ffffcc00</color><width>1</width></LineStyle><PolyStyle><fill>1</fill><color>80ffcc00</color></PolyStyle></Style>
		
		
		
		
		<!-- Records -->
		<Placemark><name>Adam Sedgwick</name><styleUrl>#point-pokestop</styleUrl><Point><coordinates>11.575515,48.13831,0</coordinates></Point></Placemark>
		<Placemark><name>Adelbert von Chamisso</name><styleUrl>#point-pokestop</styleUrl><Point><coordinates>11.568383,48.136347,0</coordinates></Point></Placemark>
		<Placemark><name>Adolf Butenandt</name><styleUrl>#point-pokestop</styleUrl><Point><coordinates>11.574897,48.130892,0</coordinates></Point></Placemark>
		<Placemark><name>Adolf Bückmann</name><styleUrl>#point-pokestop</styleUrl><Point><coordinates>11.569106,48.135813,0</coordinates></Point></Placemark>
		<Placemark><name>Adolf Engler</name><styleUrl>#point-pokestop</styleUrl><Point><coordinates>11.570915,48.131117,0</coordinates></Point></Placemark>
		<Placemark><name>Adolf Portmann</name><styleUrl>#point-pokestop</styleUrl><Point><coordinates>11.568259,48.137725,0</coordinates></Point></Placemark>
		<Placemark><name>Adolf Windaus</name><styleUrl>#point-pokestop</styleUrl><Point><coordinates>11.573947,48.14107,0</coordinates></Point></Placemark>
		<Placemark><name>Adolf von Baeyer</name><styleUrl>#point-pokestop</styleUrl><Point><coordinates>11.571246,48.133262,0</coordinates></Point></Placemark>
		<Placemark><name>Adolphe Brongniart</name><styleUrl>#point-pokestop</styleUrl><Point><coordinates>11.580336,48.139634,0</coordinates></Point></Placemark>
		<Placemark><name>Adrien-Marie Legendre</name><styleUrl>#point-pokestop</styleUrl><Point><coordinates>11.569775,48.138388,0</coordinates></Point></Placemark>
		<Placemark><name>Akshay Venkatesh</name><styleUrl>#point-pokestop</styleUrl><Point><coordinates>11.572134,48.135342,0</coordinates></Point></Placemark>
		<Placemark><name>Alan Turing</name><styleUrl>#point-pokestop</styleUrl><Point><coordinates>11.566681,48.136967,0</coordinates></Point></Placemark>
		<Placemark><name>Albertus Magnus</name><styleUrl>#point-pokestop</styleUrl><Point><coordinates>11.581512,48.143446,0</coordinates></Point></Placemark>
		<Placemark><name>Albert Einstein</name><styleUrl>#point-pokestop</styleUrl><Point><coordinates>11.571497,48.137,0</coordinates></Point></Placemark>
		<Placemark><name>Albert Hofmann</name><styleUrl>#point-pokestop</styleUrl><Point><coordinates>11.57874,48.137889,0</coordinates></Point></Placemark>
		<Placemark><name>Alexander Braun</name><styleUrl>#point-pokestop</styleUrl><Point><coordinates>11.570334,48.132022,0</coordinates></Point></Placemark>
		<Placemark><name>Alexander Elenkin</name><styleUrl>#point-pokestop</styleUrl><Point><coordinates>11.566813,48.130722,0</coordinates></Point></Placemark>
		<Placemark><name>Alexander Fleming</name><styleUrl>#point-pokestop</styleUrl><Point><coordinates>11.580594,48.144045,0</coordinates></Point></Placemark>
		<Placemark><name>Alexander von Humboldt</name><styleUrl>#point-pokestop</styleUrl><Point><coordinates>11.580296,48.136774,0</coordinates></Point></Placemark>
		<Placemark><name>Alfred Russel Wallace</name><styleUrl>#point-pokestop</styleUrl><Point><coordinates>11.570933,48.135575,0</coordinates></Point></Placemark>
		<Placemark><name>Alfred Sherwood Romer</name><styleUrl>#point-pokestop</styleUrl><Point><coordinates>11.580834,48.137082,0</coordinates></Point></Placemark>
		<Placemark><name>Alfred Stock</name><styleUrl>#point-pokestop</styleUrl><Point><coordinates>11.578668,48.143194,0</coordinates></Point></Placemark>
		<Placemark><name>Alhazen</name><styleUrl>#point-pokestop</styleUrl><Point><coordinates>11.584836,48.134353,0</coordinates></Point></Placemark>
		<Placemark><name>Alphonse Laveran</name><styleUrl>#point-pokestop</styleUrl><Point><coordinates>11.582287,48.13647,0</coordinates></Point></Placemark>
		<Placemark><name>Al-Battani</name><styleUrl>#point-pokestop</styleUrl><Point><coordinates>11.580464,48.140672,0</coordinates></Point></Placemark>
		<Placemark><name>Amedeo Avogadro</name><styleUrl>#point-pokestop</styleUrl><Point><coordinates>11.565098,48.138806,0</coordinates></Point></Placemark>
		<Placemark><name>Amé Pictet</name><styleUrl>#point-pokestop</styleUrl><Point><coordinates>11.573973,48.136846,0</coordinates></Point></Placemark>
		<Placemark><name>Andreas Franz Wilhelm Schimper</name><styleUrl>#point-pokestop</styleUrl><Point><coordinates>11.581482,48.135502,0</coordinates></Point></Placemark>
		<Placemark><name>Andreas Vesalius</name><styleUrl>#point-pokestop</styleUrl><Point><coordinates>11.571305,48.135571,0</coordinates></Point></Placemark>
		<Placemark><name>Andrei Jurjewitsch Okunkow</name><styleUrl>#point-pokestop</styleUrl><Point><coordinates>11.579525,48.141957,0</coordinates></Point></Placemark>
		<Placemark><name>Andrew Wiles</name><styleUrl>#point-pokestop</styleUrl><Point><coordinates>11.563073,48.136217,0</coordinates></Point></Placemark>
		<Placemark><name>André Lwoff</name><styleUrl>#point-pokestop</styleUrl><Point><coordinates>11.578418,48.137415,0</coordinates></Point></Placemark>
		<Placemark><name>André Michaux</name><styleUrl>#point-pokestop</styleUrl><Point><coordinates>11.579134,48.140834,0</coordinates></Point></Placemark>
		<Placemark><name>André-Marie Ampère</name><styleUrl>#point-pokestop</styleUrl><Point><coordinates>11.570068,48.13618,0</coordinates></Point></Placemark>
		<Placemark><name>Anne Fausto-Sterling</name><styleUrl>#point-pokestop</styleUrl><Point><coordinates>11.573013,48.144073,0</coordinates></Point></Placemark>
		<Placemark><name>Antoni van Leeuwenhoek</name><styleUrl>#point-pokestop</styleUrl><Point><coordinates>11.573302,48.133452,0</coordinates></Point></Placemark>
		<Placemark><name>Anton de Bary</name><styleUrl>#point-pokestop</styleUrl><Point><coordinates>11.566859,48.136275,0</coordinates></Point></Placemark>
		<Placemark><name>Apollonios von Perge</name><styleUrl>#point-pokestop</styleUrl><Point><coordinates>11.574583,48.14168,0</coordinates></Point></Placemark>
		<Placemark><name>Aratos von Soloi</name><styleUrl>#point-pokestop</styleUrl><Point><coordinates>11.577183,48.138268,0</coordinates></Point></Placemark>
		<Placemark><name>Archimedes</name><styleUrl>#point-pokestop</styleUrl><Point><coordinates>11.576471,48.140597,0</coordinates></Point></Placemark>
		<Placemark><name>Aristarchos von Samos</name><styleUrl>#point-pokestop</styleUrl><Point><coordinates>11.580178,48.143387,0</coordinates></Point></Placemark>
		<Placemark><name>Aristoteles</name><styleUrl>#point-pokestop</styleUrl><Point><coordinates>11.564494,48.140181,0</coordinates></Point></Placemark>
		<Placemark><name>Artur Ávila</name><styleUrl>#point-pokestop</styleUrl><Point><coordinates>11.573822,48.135134,0</coordinates></Point></Placemark>
		<Placemark><name>Atle Selberg</name><styleUrl>#point-pokestop</styleUrl><Point><coordinates>11.586796,48.134147,0</coordinates></Point></Placemark>
		<Placemark><name>Augustus Addison Gould</name><styleUrl>#point-pokestop</styleUrl><Point><coordinates>11.576663,48.135706,0</coordinates></Point></Placemark>
		<Placemark><name>August Thienemann</name><styleUrl>#point-pokestop</styleUrl><Point><coordinates>11.567181,48.134333,0</coordinates></Point></Placemark>
		<Placemark><name>August Weismann</name><styleUrl>#point-pokestop</styleUrl><Point><coordinates>11.570938,48.134863,0</coordinates></Point></Placemark>
		<Placemark><name>August W. von Hofmann</name><styleUrl>#point-pokestop</styleUrl><Point><coordinates>11.565493,48.140194,0</coordinates></Point></Placemark>
		<Placemark><name>Barbara McClintock</name><styleUrl>#point-pokestop</styleUrl><Point><coordinates>11.573349,48.138772,0</coordinates></Point></Placemark>
		<Placemark><name>Barend Coenraad Petrus Jansen</name><styleUrl>#point-pokestop</styleUrl><Point><coordinates>11.569422,48.139631,0</coordinates></Point></Placemark>
		<Placemark><name>Barry Marshall</name><styleUrl>#point-pokestop</styleUrl><Point><coordinates>11.575486,48.13895,0</coordinates></Point></Placemark>
		<Placemark><name>Bernd Eistert</name><styleUrl>#point-pokestop</styleUrl><Point><coordinates>11.579704,48.13603,0</coordinates></Point></Placemark>
		<Placemark><name>Bernhard Klausnitzer</name><styleUrl>#point-pokestop</styleUrl><Point><coordinates>11.574532,48.138552,0</coordinates></Point></Placemark>
		<Placemark><name>Bernhard Rensch</name><styleUrl>#point-pokestop</styleUrl><Point><coordinates>11.576441,48.141674,0</coordinates></Point></Placemark>
		<Placemark><name>Bernhard Riemann</name><styleUrl>#point-pokestop</styleUrl><Point><coordinates>11.580286,48.144161,0</coordinates></Point></Placemark>
		<Placemark><name>Bert Hölldobler</name><styleUrl>#point-pokestop</styleUrl><Point><coordinates>11.572241,48.135684,0</coordinates></Point></Placemark>
		<Placemark><name>Birutė Galdikas</name><styleUrl>#point-pokestop</styleUrl><Point><coordinates>11.572658,48.142428,0</coordinates></Point></Placemark>
		<Placemark><name>Blaise Pascal</name><styleUrl>#point-pokestop</styleUrl><Point><coordinates>11.562342,48.137037,0</coordinates></Point></Placemark>
		<Placemark><name>Brian Goodwin</name><styleUrl>#point-pokestop</styleUrl><Point><coordinates>11.563698,48.140374,0</coordinates></Point></Placemark>
		<Placemark><name>Bruno Hofer</name><styleUrl>#point-pokestop</styleUrl><Point><coordinates>11.572229,48.143381,0</coordinates></Point></Placemark>
		<Placemark><name>Bryan Grieg Fry</name><styleUrl>#point-pokestop</styleUrl><Point><coordinates>11.570461,48.134505,0</coordinates></Point></Placemark>
		<Placemark><name>Carl Adolph Agardh</name><styleUrl>#point-pokestop</styleUrl><Point><coordinates>11.562836,48.139036,0</coordinates></Point></Placemark>
		<Placemark><name>Carl Auer von Welsbach</name><styleUrl>#point-pokestop</styleUrl><Point><coordinates>11.580959,48.140567,0</coordinates></Point></Placemark>
		<Placemark><name>Carl Correns</name><styleUrl>#point-pokestop</styleUrl><Point><coordinates>11.572578,48.136304,0</coordinates></Point></Placemark>
		<Placemark><name>Carl Gegenbaur</name><styleUrl>#point-pokestop</styleUrl><Point><coordinates>11.585993,48.143405,0</coordinates></Point></Placemark>
		<Placemark><name>Carl Geyer</name><styleUrl>#point-pokestop</styleUrl><Point><coordinates>11.575896,48.13673,0</coordinates></Point></Placemark>
		<Placemark><name>Carl Gustav Mosander</name><styleUrl>#point-pokestop</styleUrl><Point><coordinates>11.571465,48.142036,0</coordinates></Point></Placemark>
		<Placemark><name>Carl Josef Bayer</name><styleUrl>#point-pokestop</styleUrl><Point><coordinates>11.566479,48.137958,0</coordinates></Point></Placemark>
		<Placemark><name>Carl Ludwig Kirschbaum</name><styleUrl>#point-pokestop</styleUrl><Point><coordinates>11.568919,48.138648,0</coordinates></Point></Placemark>
		<Placemark><name>Carl Mannich</name><styleUrl>#point-pokestop</styleUrl><Point><coordinates>11.585962,48.141605,0</coordinates></Point></Placemark>
		<Placemark><name>Carl Peter Thunberg</name><styleUrl>#point-pokestop</styleUrl><Point><coordinates>11.583692,48.136342,0</coordinates></Point></Placemark>
		<Placemark><name>Carl Wilhelm von Nägeli</name><styleUrl>#point-pokestop</styleUrl><Point><coordinates>11.57022,48.131679,0</coordinates></Point></Placemark>
		<Placemark><name>Carl Woese</name><styleUrl>#point-pokestop</styleUrl><Point><coordinates>11.577754,48.137284,0</coordinates></Point></Placemark>
		<Placemark><name>Carl von Linné</name><styleUrl>#point-pokestop</styleUrl><Point><coordinates>11.578185,48.142454,0</coordinates></Point></Placemark>
		<Placemark><name>Caspar Friedrich Wolff</name><styleUrl>#point-pokestop</styleUrl><Point><coordinates>11.569367,48.136319,0</coordinates></Point></Placemark>
		<Placemark><name>Caucher Birkar</name><styleUrl>#point-pokestop</styleUrl><Point><coordinates>11.579747,48.134014,0</coordinates></Point></Placemark>
		<Placemark><name>Charles Adolphe Wurtz</name><styleUrl>#point-pokestop</styleUrl><Point><coordinates>11.580923,48.134895,0</coordinates></Point></Placemark>
		<Placemark><name>Charles Friedel</name><styleUrl>#point-pokestop</styleUrl><Point><coordinates>11.567449,48.130925,0</coordinates></Point></Placemark>
		<Placemark><name>Charles Goodyear</name><styleUrl>#point-pokestop</styleUrl><Point><coordinates>11.578339,48.139714,0</coordinates></Point></Placemark>
		<Placemark><name>Charles Hard Townes</name><styleUrl>#point-pokestop</styleUrl><Point><coordinates>11.566303,48.144276,0</coordinates></Point></Placemark>
		<Placemark><name>Charles Sutherland Elton</name><styleUrl>#point-pokestop</styleUrl><Point><coordinates>11.586842,48.14021,0</coordinates></Point></Placemark>
		<Placemark><name>Charles Walcott</name><styleUrl>#point-pokestop</styleUrl><Point><coordinates>11.580157,48.136522,0</coordinates></Point></Placemark>
		<Placemark><name>Christiane Nüsslein-Volhard</name><styleUrl>#point-pokestop</styleUrl><Point><coordinates>11.581088,48.137736,0</coordinates></Point></Placemark>
		<Placemark><name>Christian Friedrich Schönbein</name><styleUrl>#point-pokestop</styleUrl><Point><coordinates>11.578664,48.138953,0</coordinates></Point></Placemark>
		<Placemark><name>Christian Hendrik Persoon</name><styleUrl>#point-pokestop</styleUrl><Point><coordinates>11.573913,48.139753,0</coordinates></Point></Placemark>
		<Placemark><name>Christian de Duve</name><styleUrl>#point-pokestop</styleUrl><Point><coordinates>11.575075,48.135701,0</coordinates></Point></Placemark>
		<Placemark><name>Christopher Kelk Ingold</name><styleUrl>#point-pokestop</styleUrl><Point><coordinates>11.572783,48.132368,0</coordinates></Point></Placemark>
		<Placemark><name>Claude-Joseph Geoffroy</name><styleUrl>#point-pokestop</styleUrl><Point><coordinates>11.577862,48.130261,0</coordinates></Point></Placemark>
		<Placemark><name>Claude-Louis Berthollet</name><styleUrl>#point-pokestop</styleUrl><Point><coordinates>11.574753,48.1444,0</coordinates></Point></Placemark>
		<Placemark><name>Conrad Gessner</name><styleUrl>#point-pokestop</styleUrl><Point><coordinates>11.58558,48.134326,0</coordinates></Point></Placemark>
		<Placemark><name>Conrad Hal Waddington</name><styleUrl>#point-pokestop</styleUrl><Point><coordinates>11.582097,48.143316,0</coordinates></Point></Placemark>
		<Placemark><name>Corentin Louis Kervran</name><styleUrl>#point-pokestop</styleUrl><Point><coordinates>11.574873,48.142998,0</coordinates></Point></Placemark>
		<Placemark><name>Cristóbal Acosta</name><styleUrl>#point-pokestop</styleUrl><Point><coordinates>11.575952,48.139558,0</coordinates></Point></Placemark>
		<Placemark><name>Daniel Rutherford</name><styleUrl>#point-pokestop</styleUrl><Point><coordinates>11.581213,48.144098,0</coordinates></Point></Placemark>
		<Placemark><name>Daniel Solander</name><styleUrl>#point-pokestop</styleUrl><Point><coordinates>11.574472,48.134141,0</coordinates></Point></Placemark>
		<Placemark><name>David Bellamy</name><styleUrl>#point-pokestop</styleUrl><Point><coordinates>11.567355,48.131629,0</coordinates></Point></Placemark>
		<Placemark><name>David Douglas</name><styleUrl>#point-pokestop</styleUrl><Point><coordinates>11.567953,48.13968,0</coordinates></Point></Placemark>
		<Placemark><name>David Gross</name><styleUrl>#point-pokestop</styleUrl><Point><coordinates>11.576333,48.140873,0</coordinates></Point></Placemark>
		<Placemark><name>Demokrit</name><styleUrl>#point-pokestop</styleUrl><Point><coordinates>11.577288,48.135076,0</coordinates></Point></Placemark>
		<Placemark><name>Denis Duboule</name><styleUrl>#point-pokestop</styleUrl><Point><coordinates>11.577259,48.140794,0</coordinates></Point></Placemark>
		<Placemark><name>Denis Noble</name><styleUrl>#point-pokestop</styleUrl><Point><coordinates>11.574644,48.133956,0</coordinates></Point></Placemark>
		<Placemark><name>Dian Fossey</name><styleUrl>#point-pokestop</styleUrl><Point><coordinates>11.572769,48.138663,0</coordinates></Point></Placemark>
		<Placemark><name>Dietrich Starck</name><styleUrl>#point-pokestop</styleUrl><Point><coordinates>11.571942,48.142738,0</coordinates></Point></Placemark>
		<Placemark><name>Domenico Cirillo</name><styleUrl>#point-pokestop</styleUrl><Point><coordinates>11.572266,48.130949,0</coordinates></Point></Placemark>
		<Placemark><name>Dorothy Crowfoot Hodgkin</name><styleUrl>#point-pokestop</styleUrl><Point><coordinates>11.576011,48.140043,0</coordinates></Point></Placemark>
		<Placemark><name>Douglas J. Futuyma</name><styleUrl>#point-pokestop</styleUrl><Point><coordinates>11.570996,48.132827,0</coordinates></Point></Placemark>
		<Placemark><name>Dschamschid Masʿud al-Kaschi</name><styleUrl>#point-pokestop</styleUrl><Point><coordinates>11.566495,48.131037,0</coordinates></Point></Placemark>
		<Placemark><name>Dschābir ibn Hayyān</name><styleUrl>#point-pokestop</styleUrl><Point><coordinates>11.574592,48.137198,0</coordinates></Point></Placemark>
		<Placemark><name>Eduard Friedrich Poeppig</name><styleUrl>#point-pokestop</styleUrl><Point><coordinates>11.579604,48.143308,0</coordinates></Point></Placemark>
		<Placemark><name>Edward O. Wilson</name><styleUrl>#point-pokestop</styleUrl><Point><coordinates>11.579084,48.136443,0</coordinates></Point></Placemark>
		<Placemark><name>Edward Turner</name><styleUrl>#point-pokestop</styleUrl><Point><coordinates>11.569091,48.137383,0</coordinates></Point></Placemark>
		<Placemark><name>Efim Zelmanov</name><styleUrl>#point-pokestop</styleUrl><Point><coordinates>11.57505,48.141829,0</coordinates></Point></Placemark>
		<Placemark><name>Elon Lindenstrauss</name><styleUrl>#point-pokestop</styleUrl><Point><coordinates>11.564735,48.13588,0</coordinates></Point></Placemark>
		<Placemark><name>Emil Erlenmeyer</name><styleUrl>#point-pokestop</styleUrl><Point><coordinates>11.581995,48.142548,0</coordinates></Point></Placemark>
		<Placemark><name>Emil Fischer</name><styleUrl>#point-pokestop</styleUrl><Point><coordinates>11.574473,48.139764,0</coordinates></Point></Placemark>
		<Placemark><name>Emil Heinrich Du Bois-Reymond</name><styleUrl>#point-pokestop</styleUrl><Point><coordinates>11.569458,48.133708,0</coordinates></Point></Placemark>
		<Placemark><name>Emil Knoevenagel</name><styleUrl>#point-pokestop</styleUrl><Point><coordinates>11.58083,48.139317,0</coordinates></Point></Placemark>
		<Placemark><name>Enrico Bombieri</name><styleUrl>#point-pokestop</styleUrl><Point><coordinates>11.574141,48.137475,0</coordinates></Point></Placemark>
		<Placemark><name>Enrico Fermi</name><styleUrl>#point-pokestop</styleUrl><Point><coordinates>11.575528,48.135009,0</coordinates></Point></Placemark>
		<Placemark><name>Erika Cremer</name><styleUrl>#point-pokestop</styleUrl><Point><coordinates>11.578123,48.140668,0</coordinates></Point></Placemark>
		<Placemark><name>Ernest Rutherford</name><styleUrl>#point-pokestop</styleUrl><Point><coordinates>11.573954,48.136177,0</coordinates></Point></Placemark>
		<Placemark><name>Ernst Otto Fischer</name><styleUrl>#point-pokestop</styleUrl><Point><coordinates>11.577565,48.143987,0</coordinates></Point></Placemark>
		<Placemark><name>Ernst Schmidt</name><styleUrl>#point-pokestop</styleUrl><Point><coordinates>11.571442,48.14039,0</coordinates></Point></Placemark>
		<Placemark><name>Ernst Schulze</name><styleUrl>#point-pokestop</styleUrl><Point><coordinates>11.577626,48.141269,0</coordinates></Point></Placemark>
		<Placemark><name>Eudoxos von Knidos</name><styleUrl>#point-pokestop</styleUrl><Point><coordinates>11.568977,48.134606,0</coordinates></Point></Placemark>
		<Placemark><name>Eugene Paul Wigner</name><styleUrl>#point-pokestop</styleUrl><Point><coordinates>11.573381,48.135641,0</coordinates></Point></Placemark>
		<Placemark><name>Euklid von Alexandria</name><styleUrl>#point-pokestop</styleUrl><Point><coordinates>11.572833,48.134614,0</coordinates></Point></Placemark>
		<Placemark><name>Eörs Szathmáry</name><styleUrl>#point-pokestop</styleUrl><Point><coordinates>11.57636,48.141328,0</coordinates></Point></Placemark>
		<Placemark><name>Felix Klein</name><styleUrl>#point-pokestop</styleUrl><Point><coordinates>11.576292,48.133063,0</coordinates></Point></Placemark>
		<Placemark><name>François Viète</name><styleUrl>#point-pokestop</styleUrl><Point><coordinates>11.575426,48.142119,0</coordinates></Point></Placemark>
		<Placemark><name>Frederick Soddy</name><styleUrl>#point-pokestop</styleUrl><Point><coordinates>11.580943,48.138408,0</coordinates></Point></Placemark>
		<Placemark><name>Friedrich Konrad Beilstein</name><styleUrl>#point-pokestop</styleUrl><Point><coordinates>11.570441,48.139869,0</coordinates></Point></Placemark>
		<Placemark><name>Friedrich Wöhler</name><styleUrl>#point-pokestop</styleUrl><Point><coordinates>11.577224,48.135256,0</coordinates></Point></Placemark>
		<Placemark><name>Fritz Haber</name><styleUrl>#point-pokestop</styleUrl><Point><coordinates>11.587314,48.135605,0</coordinates></Point></Placemark>
		<Placemark><name>Fritz Pregl</name><styleUrl>#point-pokestop</styleUrl><Point><coordinates>11.568874,48.13697,0</coordinates></Point></Placemark>
		<Placemark><name>Galileo Galilei</name><styleUrl>#point-pokestop</styleUrl><Point><coordinates>11.576082,48.143654,0</coordinates></Point></Placemark>
		<Placemark><name>Gaspard Monge</name><styleUrl>#point-pokestop</styleUrl><Point><coordinates>11.574049,48.135874,0</coordinates></Point></Placemark>
		<Placemark><name>Georges Cuvier</name><styleUrl>#point-pokestop</styleUrl><Point><coordinates>11.576817,48.137177,0</coordinates></Point></Placemark>
		<Placemark><name>George Ledyard Stebbins</name><styleUrl>#point-pokestop</styleUrl><Point><coordinates>11.575494,48.144054,0</coordinates></Point></Placemark>
		<Placemark><name>Georgius Agricola</name><styleUrl>#point-pokestop</styleUrl><Point><coordinates>11.566823,48.135643,0</coordinates></Point></Placemark>
		<Placemark><name>Georg Marggraf</name><styleUrl>#point-pokestop</styleUrl><Point><coordinates>11.568354,48.130495,0</coordinates></Point></Placemark>
		<Placemark><name>Georg Wittig</name><styleUrl>#point-pokestop</styleUrl><Point><coordinates>11.569183,48.140043,0</coordinates></Point></Placemark>
		<Placemark><name>Gerardus ’t Hooft</name><styleUrl>#point-pokestop</styleUrl><Point><coordinates>11.574966,48.143549,0</coordinates></Point></Placemark>
		<Placemark><name>Gerard Baerends</name><styleUrl>#point-pokestop</styleUrl><Point><coordinates>11.570643,48.140707,0</coordinates></Point></Placemark>
		<Placemark><name>Gerhard Ertl</name><styleUrl>#point-pokestop</styleUrl><Point><coordinates>11.575942,48.136302,0</coordinates></Point></Placemark>
		<Placemark><name>Gerhard Schrader</name><styleUrl>#point-pokestop</styleUrl><Point><coordinates>11.578686,48.139725,0</coordinates></Point></Placemark>
		<Placemark><name>Gerolamo Cardano</name><styleUrl>#point-pokestop</styleUrl><Point><coordinates>11.571026,48.139624,0</coordinates></Point></Placemark>
		<Placemark><name>Gilbert Newton Lewis</name><styleUrl>#point-pokestop</styleUrl><Point><coordinates>11.577865,48.138225,0</coordinates></Point></Placemark>
		<Placemark><name>Gilbert Stork</name><styleUrl>#point-pokestop</styleUrl><Point><coordinates>11.585626,48.137658,0</coordinates></Point></Placemark>
		<Placemark><name>Gottfried Reinhold Treviranus</name><styleUrl>#point-pokestop</styleUrl><Point><coordinates>11.580675,48.141462,0</coordinates></Point></Placemark>
		<Placemark><name>Gottfried Wilhelm Leibniz</name><styleUrl>#point-pokestop</styleUrl><Point><coordinates>11.578311,48.137576,0</coordinates></Point></Placemark>
		<Placemark><name>Grigori Alexandrowitsch Margulis</name><styleUrl>#point-pokestop</styleUrl><Point><coordinates>11.567891,48.135141,0</coordinates></Point></Placemark>
		<Placemark><name>Gustav Wellenstein</name><styleUrl>#point-pokestop</styleUrl><Point><coordinates>11.569956,48.139935,0</coordinates></Point></Placemark>
		<Placemark><name>Gustav Wendelberger</name><styleUrl>#point-pokestop</styleUrl><Point><coordinates>11.567852,48.140312,0</coordinates></Point></Placemark>
		<Placemark><name>Hans Fischer</name><styleUrl>#point-pokestop</styleUrl><Point><coordinates>11.570978,48.139034,0</coordinates></Point></Placemark>
		<Placemark><name>Hans Hass</name><styleUrl>#point-pokestop</styleUrl><Point><coordinates>11.569968,48.135028,0</coordinates></Point></Placemark>
		<Placemark><name>Hans Heinrich Landolt</name><styleUrl>#point-pokestop</styleUrl><Point><coordinates>11.565916,48.135777,0</coordinates></Point></Placemark>
		<Placemark><name>Hans Molisch</name><styleUrl>#point-pokestop</styleUrl><Point><coordinates>11.570846,48.141833,0</coordinates></Point></Placemark>
		<Placemark><name>Hans Spemann</name><styleUrl>#point-pokestop</styleUrl><Point><coordinates>11.569675,48.135091,0</coordinates></Point></Placemark>
		<Placemark><name>Hans Stichel</name><styleUrl>#point-pokestop</styleUrl><Point><coordinates>11.56668,48.13169,0</coordinates></Point></Placemark>
		<Placemark><name>Heinrich Hertz</name><styleUrl>#point-pokestop</styleUrl><Point><coordinates>11.56798,48.136425,0</coordinates></Point></Placemark>
		<Placemark><name>Heinrich Walter</name><styleUrl>#point-pokestop</styleUrl><Point><coordinates>11.566211,48.139281,0</coordinates></Point></Placemark>
		<Placemark><name>Heinz Sielmann</name><styleUrl>#point-pokestop</styleUrl><Point><coordinates>11.571661,48.135744,0</coordinates></Point></Placemark>
		<Placemark><name>Heisuke Hironaka</name><styleUrl>#point-pokestop</styleUrl><Point><coordinates>11.578093,48.142804,0</coordinates></Point></Placemark>
		<Placemark><name>Hendrik Antoon Lorentz</name><styleUrl>#point-pokestop</styleUrl><Point><coordinates>11.575577,48.141591,0</coordinates></Point></Placemark>
		<Placemark><name>Henri Poincaré</name><styleUrl>#point-pokestop</styleUrl><Point><coordinates>11.57543,48.136539,0</coordinates></Point></Placemark>
		<Placemark><name>Henry Enfield Roscoe</name><styleUrl>#point-pokestop</styleUrl><Point><coordinates>11.58276,48.140355,0</coordinates></Point></Placemark>
		<Placemark><name>Henry Le Chatelier</name><styleUrl>#point-pokestop</styleUrl><Point><coordinates>11.579062,48.137051,0</coordinates></Point></Placemark>
		<Placemark><name>Herbert Charles Brown</name><styleUrl>#point-pokestop</styleUrl><Point><coordinates>11.577512,48.143045,0</coordinates></Point></Placemark>
		<Placemark><name>Herbert Jäckle</name><styleUrl>#point-pokestop</styleUrl><Point><coordinates>11.568946,48.131302,0</coordinates></Point></Placemark>
		<Placemark><name>Hermann Minkowski</name><styleUrl>#point-pokestop</styleUrl><Point><coordinates>11.571418,48.143076,0</coordinates></Point></Placemark>
		<Placemark><name>Hermann Müller</name><styleUrl>#point-pokestop</styleUrl><Point><coordinates>11.576278,48.137889,0</coordinates></Point></Placemark>
		<Placemark><name>Hermann Theodor Geyler</name><styleUrl>#point-pokestop</styleUrl><Point><coordinates>11.56968,48.132527,0</coordinates></Point></Placemark>
		<Placemark><name>Hermann Weyl</name><styleUrl>#point-pokestop</styleUrl><Point><coordinates>11.584985,48.13466,0</coordinates></Point></Placemark>
		<Placemark><name>Irène Joliot-Curie</name><styleUrl>#point-pokestop</styleUrl><Point><coordinates>11.572484,48.134376,0</coordinates></Point></Placemark>
		<Placemark><name>Isaac Newton</name><styleUrl>#point-pokestop</styleUrl><Point><coordinates>11.579905,48.134873,0</coordinates></Point></Placemark>
		<Placemark><name>Isidor Isaac Rabi</name><styleUrl>#point-pokestop</styleUrl><Point><coordinates>11.581601,48.139457,0</coordinates></Point></Placemark>
		<Placemark><name>Ivar Ugi</name><styleUrl>#point-pokestop</styleUrl><Point><coordinates>11.575,48.137777,0</coordinates></Point></Placemark>
		<Placemark><name>Jacobus Henricus van ’t Hoff</name><styleUrl>#point-pokestop</styleUrl><Point><coordinates>11.572432,48.139466,0</coordinates></Point></Placemark>
		<Placemark><name>Jakob I Bernoulli</name><styleUrl>#point-pokestop</styleUrl><Point><coordinates>11.577559,48.137588,0</coordinates></Point></Placemark>
		<Placemark><name>James Dewar</name><styleUrl>#point-pokestop</styleUrl><Point><coordinates>11.579077,48.140016,0</coordinates></Point></Placemark>
		<Placemark><name>James Prescott Joule</name><styleUrl>#point-pokestop</styleUrl><Point><coordinates>11.581642,48.139828,0</coordinates></Point></Placemark>
		<Placemark><name>Jean Servais Stas</name><styleUrl>#point-pokestop</styleUrl><Point><coordinates>11.570037,48.1403,0</coordinates></Point></Placemark>
		<Placemark><name>Jean-Pierre Serre</name><styleUrl>#point-pokestop</styleUrl><Point><coordinates>11.579187,48.134998,0</coordinates></Point></Placemark>
		<Placemark><name>Jesse Douglas</name><styleUrl>#point-pokestop</styleUrl><Point><coordinates>11.571805,48.137999,0</coordinates></Point></Placemark>
		<Placemark><name>Johannes Diderik van der Waals</name><styleUrl>#point-pokestop</styleUrl><Point><coordinates>11.573748,48.13841,0</coordinates></Point></Placemark>
		<Placemark><name>Johannes Kepler</name><styleUrl>#point-pokestop</styleUrl><Point><coordinates>11.579786,48.137723,0</coordinates></Point></Placemark>
		<Placemark><name>Johannes Nicolaus Brønsted</name><styleUrl>#point-pokestop</styleUrl><Point><coordinates>11.572516,48.139261,0</coordinates></Point></Placemark>
		<Placemark><name>Johann I Bernoulli</name><styleUrl>#point-pokestop</styleUrl><Point><coordinates>11.588209,48.141314,0</coordinates></Point></Placemark>
		<Placemark><name>Johann Josef Loschmidt</name><styleUrl>#point-pokestop</styleUrl><Point><coordinates>11.573031,48.133766,0</coordinates></Point></Placemark>
		<Placemark><name>Johan Kjeldahl</name><styleUrl>#point-pokestop</styleUrl><Point><coordinates>11.575756,48.134048,0</coordinates></Point></Placemark>
		<Placemark><name>John Anthony Pople</name><styleUrl>#point-pokestop</styleUrl><Point><coordinates>11.577331,48.13611,0</coordinates></Point></Placemark>
		<Placemark><name>John Archibald Wheeler</name><styleUrl>#point-pokestop</styleUrl><Point><coordinates>11.568322,48.134226,0</coordinates></Point></Placemark>
		<Placemark><name>John Bardeen</name><styleUrl>#point-pokestop</styleUrl><Point><coordinates>11.575784,48.142697,0</coordinates></Point></Placemark>
		<Placemark><name>John Griggs Thompson</name><styleUrl>#point-pokestop</styleUrl><Point><coordinates>11.578683,48.141232,0</coordinates></Point></Placemark>
		<Placemark><name>John Wallis</name><styleUrl>#point-pokestop</styleUrl><Point><coordinates>11.573072,48.140061,0</coordinates></Point></Placemark>
		<Placemark><name>Josef Schormüller</name><styleUrl>#point-pokestop</styleUrl><Point><coordinates>11.574318,48.142161,0</coordinates></Point></Placemark>
		<Placemark><name>Joseph Black</name><styleUrl>#point-pokestop</styleUrl><Point><coordinates>11.572694,48.137852,0</coordinates></Point></Placemark>
		<Placemark><name>Joseph Fourier</name><styleUrl>#point-pokestop</styleUrl><Point><coordinates>11.583018,48.138473,0</coordinates></Point></Placemark>
		<Placemark><name>Joseph Louis Gay-Lussac</name><styleUrl>#point-pokestop</styleUrl><Point><coordinates>11.571616,48.135058,0</coordinates></Point></Placemark>
		<Placemark><name>Joseph Wilson Swan</name><styleUrl>#point-pokestop</styleUrl><Point><coordinates>11.576344,48.139663,0</coordinates></Point></Placemark>
		<Placemark><name>Julius Tafel</name><styleUrl>#point-pokestop</styleUrl><Point><coordinates>11.571952,48.136638,0</coordinates></Point></Placemark>
		<Placemark><name>Justus von Liebig</name><styleUrl>#point-pokestop</styleUrl><Point><coordinates>11.578538,48.141907,0</coordinates></Point></Placemark>
		<Placemark><name>Karl Weierstraß</name><styleUrl>#point-pokestop</styleUrl><Point><coordinates>11.567278,48.133413,0</coordinates></Point></Placemark>
		<Placemark><name>Karl Ziegler</name><styleUrl>#point-pokestop</styleUrl><Point><coordinates>11.572396,48.14143,0</coordinates></Point></Placemark>
		<Placemark><name>Kodaira Kunihiko</name><styleUrl>#point-pokestop</styleUrl><Point><coordinates>11.571767,48.130152,0</coordinates></Point></Placemark>
		<Placemark><name>Kurt Alder</name><styleUrl>#point-pokestop</styleUrl><Point><coordinates>11.572395,48.136958,0</coordinates></Point></Placemark>
		<Placemark><name>Kurt Gödel</name><styleUrl>#point-pokestop</styleUrl><Point><coordinates>11.567241,48.137931,0</coordinates></Point></Placemark>
		<Placemark><name>Lars Valerian Ahlfors</name><styleUrl>#point-pokestop</styleUrl><Point><coordinates>11.581142,48.141836,0</coordinates></Point></Placemark>
		<Placemark><name>Laurent Lafforgue</name><styleUrl>#point-pokestop</styleUrl><Point><coordinates>11.578586,48.135088,0</coordinates></Point></Placemark>
		<Placemark><name>Laurent Schwartz</name><styleUrl>#point-pokestop</styleUrl><Point><coordinates>11.570487,48.1367,0</coordinates></Point></Placemark>
		<Placemark><name>Leonardo Fibonacci</name><styleUrl>#point-pokestop</styleUrl><Point><coordinates>11.579427,48.14277,0</coordinates></Point></Placemark>
		<Placemark><name>Leo Hendrik Baekeland</name><styleUrl>#point-pokestop</styleUrl><Point><coordinates>11.577013,48.129801,0</coordinates></Point></Placemark>
		<Placemark><name>Lise Meitner</name><styleUrl>#point-pokestop</styleUrl><Point><coordinates>11.573731,48.136521,0</coordinates></Point></Placemark>
		<Placemark><name>Lothar Meyer</name><styleUrl>#point-pokestop</styleUrl><Point><coordinates>11.585355,48.138337,0</coordinates></Point></Placemark>
		<Placemark><name>Louis Pasteur</name><styleUrl>#point-pokestop</styleUrl><Point><coordinates>11.569548,48.131114,0</coordinates></Point></Placemark>
		<Placemark><name>Louis-Nicolas Vauquelin</name><styleUrl>#point-pokestop</styleUrl><Point><coordinates>11.575815,48.131353,0</coordinates></Point></Placemark>
		<Placemark><name>Ludwig Boltzmann</name><styleUrl>#point-pokestop</styleUrl><Point><coordinates>11.572657,48.139597,0</coordinates></Point></Placemark>
		<Placemark><name>Manfred Eigen</name><styleUrl>#point-pokestop</styleUrl><Point><coordinates>11.562623,48.137328,0</coordinates></Point></Placemark>
		<Placemark><name>Manjul Bhargava</name><styleUrl>#point-pokestop</styleUrl><Point><coordinates>11.56298,48.139681,0</coordinates></Point></Placemark>
		<Placemark><name>Max Bodenstein</name><styleUrl>#point-pokestop</styleUrl><Point><coordinates>11.579062,48.136142,0</coordinates></Point></Placemark>
		<Placemark><name>Max Born</name><styleUrl>#point-pokestop</styleUrl><Point><coordinates>11.577573,48.139545,0</coordinates></Point></Placemark>
		<Placemark><name>Michael Freedman</name><styleUrl>#point-pokestop</styleUrl><Point><coordinates>11.568212,48.140114,0</coordinates></Point></Placemark>
		<Placemark><name>Nicolas Leblanc</name><styleUrl>#point-pokestop</styleUrl><Point><coordinates>11.576208,48.137238,0</coordinates></Point></Placemark>
		<Placemark><name>Niels Bohr</name><styleUrl>#point-pokestop</styleUrl><Point><coordinates>11.568173,48.138819,0</coordinates></Point></Placemark>
		<Placemark><name>Niels Henrik Abel</name><styleUrl>#point-pokestop</styleUrl><Point><coordinates>11.582389,48.143533,0</coordinates></Point></Placemark>
		<Placemark><name>Nikolai Iwanowitsch Lobatschewski</name><styleUrl>#point-pokestop</styleUrl><Point><coordinates>11.575685,48.13947,0</coordinates></Point></Placemark>
		<Placemark><name>Nils Gabriel Sefström</name><styleUrl>#point-pokestop</styleUrl><Point><coordinates>11.578049,48.136143,0</coordinates></Point></Placemark>
		<Placemark><name>Omar Chayyām</name><styleUrl>#point-pokestop</styleUrl><Point><coordinates>11.575054,48.137954,0</coordinates></Point></Placemark>
		<Placemark><name>Otto Hahn</name><styleUrl>#point-pokestop</styleUrl><Point><coordinates>11.574508,48.13877,0</coordinates></Point></Placemark>
		<Placemark><name>Otto Stern</name><styleUrl>#point-pokestop</styleUrl><Point><coordinates>11.58162,48.138889,0</coordinates></Point></Placemark>
		<Placemark><name>Pappos</name><styleUrl>#point-pokestop</styleUrl><Point><coordinates>11.586037,48.13808,0</coordinates></Point></Placemark>
		<Placemark><name>Paul Dirac</name><styleUrl>#point-pokestop</styleUrl><Point><coordinates>11.57181,48.131326,0</coordinates></Point></Placemark>
		<Placemark><name>Paul Erdős</name><styleUrl>#point-pokestop</styleUrl><Point><coordinates>11.577956,48.135678,0</coordinates></Point></Placemark>
		<Placemark><name>Paul Karrer</name><styleUrl>#point-pokestop</styleUrl><Point><coordinates>11.578512,48.136378,0</coordinates></Point></Placemark>
		<Placemark><name>Peter Gustav Lejeune Dirichlet</name><styleUrl>#point-pokestop</styleUrl><Point><coordinates>11.580499,48.137622,0</coordinates></Point></Placemark>
		<Placemark><name>Peter Waage</name><styleUrl>#point-pokestop</styleUrl><Point><coordinates>11.571463,48.138251,0</coordinates></Point></Placemark>
		<Placemark><name>Pierre de Fermat</name><styleUrl>#point-pokestop</styleUrl><Point><coordinates>11.570623,48.137402,0</coordinates></Point></Placemark>
		<Placemark><name>Pierre-Louis Lions</name><styleUrl>#point-pokestop</styleUrl><Point><coordinates>11.577716,48.136904,0</coordinates></Point></Placemark>
		<Placemark><name>Pierre-Simon Laplace</name><styleUrl>#point-pokestop</styleUrl><Point><coordinates>11.569588,48.135408,0</coordinates></Point></Placemark>
		<Placemark><name>René Descartes</name><styleUrl>#point-pokestop</styleUrl><Point><coordinates>11.577523,48.14207,0</coordinates></Point></Placemark>
		<Placemark><name>Richard Anschütz</name><styleUrl>#point-pokestop</styleUrl><Point><coordinates>11.574632,48.134885,0</coordinates></Point></Placemark>
		<Placemark><name>Richard Borcherds</name><styleUrl>#point-pokestop</styleUrl><Point><coordinates>11.573971,48.142877,0</coordinates></Point></Placemark>
		<Placemark><name>Richard Feynman</name><styleUrl>#point-pokestop</styleUrl><Point><coordinates>11.564012,48.139138,0</coordinates></Point></Placemark>
		<Placemark><name>Richard Müller</name><styleUrl>#point-pokestop</styleUrl><Point><coordinates>11.574651,48.133514,0</coordinates></Point></Placemark>
		<Placemark><name>Robert Boyle</name><styleUrl>#point-pokestop</styleUrl><Point><coordinates>11.576816,48.142689,0</coordinates></Point></Placemark>
		<Placemark><name>Robert Bruce Merrifield</name><styleUrl>#point-pokestop</styleUrl><Point><coordinates>11.57845,48.140864,0</coordinates></Point></Placemark>
		<Placemark><name>Rudolf Clausius</name><styleUrl>#point-pokestop</styleUrl><Point><coordinates>11.574542,48.140662,0</coordinates></Point></Placemark>
		<Placemark><name>Rudolph Fittig</name><styleUrl>#point-pokestop</styleUrl><Point><coordinates>11.578955,48.138152,0</coordinates></Point></Placemark>
		<Placemark><name>Seki Takakazu</name><styleUrl>#point-pokestop</styleUrl><Point><coordinates>11.577399,48.138974,0</coordinates></Point></Placemark>
		<Placemark><name>Simon Donaldson</name><styleUrl>#point-pokestop</styleUrl><Point><coordinates>11.580298,48.140409,0</coordinates></Point></Placemark>
		<Placemark><name>Stanislaw Smirnow</name><styleUrl>#point-pokestop</styleUrl><Point><coordinates>11.571485,48.144111,0</coordinates></Point></Placemark>
		<Placemark><name>Stefan Banach</name><styleUrl>#point-pokestop</styleUrl><Point><coordinates>11.56557,48.138152,0</coordinates></Point></Placemark>
		<Placemark><name>Terence Tao</name><styleUrl>#point-pokestop</styleUrl><Point><coordinates>11.570416,48.139013,0</coordinates></Point></Placemark>
		<Placemark><name>Thomas Graham</name><styleUrl>#point-pokestop</styleUrl><Point><coordinates>11.570481,48.1444,0</coordinates></Point></Placemark>
		<Placemark><name>Vaughan F. R. Jones</name><styleUrl>#point-pokestop</styleUrl><Point><coordinates>11.586031,48.135223,0</coordinates></Point></Placemark>
		<Placemark><name>Victor Grignard</name><styleUrl>#point-pokestop</styleUrl><Point><coordinates>11.56759,48.139506,0</coordinates></Point></Placemark>
		<Placemark><name>Victor Meyer</name><styleUrl>#point-pokestop</styleUrl><Point><coordinates>11.573483,48.134409,0</coordinates></Point></Placemark>
		<Placemark><name>Vladimir Drinfeld</name><styleUrl>#point-pokestop</styleUrl><Point><coordinates>11.571889,48.140892,0</coordinates></Point></Placemark>
		<Placemark><name>Vladimir Prelog</name><styleUrl>#point-pokestop</styleUrl><Point><coordinates>11.582107,48.141294,0</coordinates></Point></Placemark>
		<Placemark><name>Walter Kossel</name><styleUrl>#point-pokestop</styleUrl><Point><coordinates>11.573965,48.140259,0</coordinates></Point></Placemark>
		<Placemark><name>Walther Hempel</name><styleUrl>#point-pokestop</styleUrl><Point><coordinates>11.579754,48.138298,0</coordinates></Point></Placemark>
		<Placemark><name>Walther Nernst</name><styleUrl>#point-pokestop</styleUrl><Point><coordinates>11.57207,48.132774,0</coordinates></Point></Placemark>
		<Placemark><name>Werner Heisenberg</name><styleUrl>#point-pokestop</styleUrl><Point><coordinates>11.574602,48.143068,0</coordinates></Point></Placemark>
		<Placemark><name>Wilhelm Biltz</name><styleUrl>#point-pokestop</styleUrl><Point><coordinates>11.573279,48.135264,0</coordinates></Point></Placemark>
		<Placemark><name>Wilhelm Ostwald</name><styleUrl>#point-pokestop</styleUrl><Point><coordinates>11.578451,48.134536,0</coordinates></Point></Placemark>
		<Placemark><name>William Justin Kroll</name><styleUrl>#point-pokestop</styleUrl><Point><coordinates>11.567726,48.135634,0</coordinates></Point></Placemark>
		<Placemark><name>William Ramsay</name><styleUrl>#point-pokestop</styleUrl><Point><coordinates>11.564979,48.130868,0</coordinates></Point></Placemark>
		<Placemark><name>Zhu Shijie</name><styleUrl>#point-pokestop</styleUrl><Point><coordinates>11.571342,48.143885,0</coordinates></Point></Placemark>
		<Placemark><name>al-Chwarizmi</name><styleUrl>#point-pokestop</styleUrl><Point><coordinates>11.577828,48.143564,0</coordinates></Point></Placemark>
		<Placemark><name>Évariste Galois</name><styleUrl>#point-pokestop</styleUrl><Point><coordinates>11.572096,48.134252,0</coordinates></Point></Placemark>
	</Document>
</kml>
